@startuml
set namespaceSeparator ::

class "wallet_splitter::main.dart::WalletSplitterApp" {
  +ThemeData theme
  +Widget build()
}

"wallet_splitter::main.dart::WalletSplitterApp" o-- "flutter::src::material::theme_data.dart::ThemeData"
"flutter::src::widgets::framework.dart::StatelessWidget" <|-- "wallet_splitter::main.dart::WalletSplitterApp"

class "wallet_splitter::Model::content_model.dart::OnBoardingContent" {
  +String image
  +String title
  +String description
}

class "wallet_splitter::Model::wallet_model.dart::WalletModel" {
  +String name
  +String balance
}

class "wallet_splitter::Pages::home.dart::Home" {
  +_HomeState createState()
}

"flutter::src::widgets::framework.dart::StatefulWidget" <|-- "wallet_splitter::Pages::home.dart::Home"

class "wallet_splitter::Pages::home.dart::_HomeState" {
  +User? user
  +Widget build()
}

"wallet_splitter::Pages::home.dart::_HomeState" o-- "firebase_auth::firebase_auth.dart::User"
"flutter::src::widgets::framework.dart::State" <|-- "wallet_splitter::Pages::home.dart::_HomeState"

class "wallet_splitter::Pages::root.dart::RootPage" {
  +_RootPageState createState()
}

"flutter::src::widgets::framework.dart::StatefulWidget" <|-- "wallet_splitter::Pages::root.dart::RootPage"

class "wallet_splitter::Pages::root.dart::_RootPageState" {
  +Widget build()
}

"flutter::src::widgets::framework.dart::State" <|-- "wallet_splitter::Pages::root.dart::_RootPageState"

class "wallet_splitter::Pages::login.dart::LoginPage" {
  +Widget build()
}

"flutter::src::widgets::framework.dart::StatelessWidget" <|-- "wallet_splitter::Pages::login.dart::LoginPage"

class "wallet_splitter::Pages::login.dart::SignIn" {
  +Widget build()
}

"flutter::src::widgets::framework.dart::StatelessWidget" <|-- "wallet_splitter::Pages::login.dart::SignIn"

class "wallet_splitter::Pages::mainPage.dart::MainPage" {
  +_MainPageState createState()
}

"flutter::src::widgets::framework.dart::StatefulWidget" <|-- "wallet_splitter::Pages::mainPage.dart::MainPage"

class "wallet_splitter::Pages::mainPage.dart::_MainPageState" {
  +int currentTab
  +List<Widget> screens
  +PageStorageBucket bucket
  +Widget currentPage
  +Widget build()
}

"wallet_splitter::Pages::mainPage.dart::_MainPageState" o-- "flutter::src::widgets::page_storage.dart::PageStorageBucket"
"wallet_splitter::Pages::mainPage.dart::_MainPageState" o-- "flutter::src::widgets::framework.dart::Widget"
"flutter::src::widgets::framework.dart::State" <|-- "wallet_splitter::Pages::mainPage.dart::_MainPageState"

class "wallet_splitter::Pages::WalletWidget::wallteDetail.dart::WaletDetail" {
  +_WaletDetailState createState()
}

"flutter::src::widgets::framework.dart::StatefulWidget" <|-- "wallet_splitter::Pages::WalletWidget::wallteDetail.dart::WaletDetail"

class "wallet_splitter::Pages::WalletWidget::wallteDetail.dart::_WaletDetailState" {
  +Widget build()
}

"flutter::src::widgets::framework.dart::State" <|-- "wallet_splitter::Pages::WalletWidget::wallteDetail.dart::_WaletDetailState"

class "wallet_splitter::Pages::WalletWidget::wallteDetail.dart::WalletDetailHistory" {
  +State<WalletDetailHistory> createState()
}

"flutter::src::widgets::framework.dart::StatefulWidget" <|-- "wallet_splitter::Pages::WalletWidget::wallteDetail.dart::WalletDetailHistory"

class "wallet_splitter::Pages::WalletWidget::wallteDetail.dart::_WalletDetailHistoryState" {
  +Widget build()
}

"flutter::src::widgets::framework.dart::State" <|-- "wallet_splitter::Pages::WalletWidget::wallteDetail.dart::_WalletDetailHistoryState"

class "wallet_splitter::Pages::WalletWidget::wallet.dart::Wallet" {
  +State<Wallet> createState()
}

"flutter::src::widgets::framework.dart::StatefulWidget" <|-- "wallet_splitter::Pages::WalletWidget::wallet.dart::Wallet"

class "wallet_splitter::Pages::WalletWidget::wallet.dart::_WalletState" {
  +Widget build()
}

"flutter::src::widgets::framework.dart::State" <|-- "wallet_splitter::Pages::WalletWidget::wallet.dart::_WalletState"

class "wallet_splitter::Pages::WalletWidget::wallet.dart::WalletCard" {
  +State<WalletCard> createState()
}

"flutter::src::widgets::framework.dart::StatefulWidget" <|-- "wallet_splitter::Pages::WalletWidget::wallet.dart::WalletCard"

class "wallet_splitter::Pages::WalletWidget::wallet.dart::_WalletCardState" {
  +Widget build()
}

"flutter::src::widgets::framework.dart::State" <|-- "wallet_splitter::Pages::WalletWidget::wallet.dart::_WalletCardState"

class "wallet_splitter::Pages::history.dart::History" {
  +_HistoryState createState()
}

"flutter::src::widgets::framework.dart::StatefulWidget" <|-- "wallet_splitter::Pages::history.dart::History"

class "wallet_splitter::Pages::history.dart::_HistoryState" {
  +Widget build()
}

"flutter::src::widgets::framework.dart::State" <|-- "wallet_splitter::Pages::history.dart::_HistoryState"

class "wallet_splitter::Pages::SplitPlanWidget::splitPlan.dart::SplitPlan" {
  +_SplitPlanState createState()
}

"flutter::src::widgets::framework.dart::StatefulWidget" <|-- "wallet_splitter::Pages::SplitPlanWidget::splitPlan.dart::SplitPlan"

class "wallet_splitter::Pages::SplitPlanWidget::splitPlan.dart::_SplitPlanState" {
  +Widget build()
}

"flutter::src::widgets::framework.dart::State" <|-- "wallet_splitter::Pages::SplitPlanWidget::splitPlan.dart::_SplitPlanState"

class "wallet_splitter::Pages::SplitPlanWidget::createSplitPlanPrecentage.dart::CreateSplitPlanPrecentage" {
  +List<WalletModel> wallets
  +_CreateSplitPlanPrecentageState createState()
}

"flutter::src::widgets::framework.dart::StatefulWidget" <|-- "wallet_splitter::Pages::SplitPlanWidget::createSplitPlanPrecentage.dart::CreateSplitPlanPrecentage"

class "wallet_splitter::Pages::SplitPlanWidget::createSplitPlanPrecentage.dart::_CreateSplitPlanPrecentageState" {
  +List<double> value
  +void initState()
  +Widget build()
}

"flutter::src::widgets::framework.dart::State" <|-- "wallet_splitter::Pages::SplitPlanWidget::createSplitPlanPrecentage.dart::_CreateSplitPlanPrecentageState"

class "wallet_splitter::Pages::SplitPlanWidget::createSplitPlanPrecentage.dart::WalletPrecentage" {
  +WalletModel wallet
  +double value
  +Function onChanged
  +State<WalletPrecentage> createState()
}

"wallet_splitter::Pages::SplitPlanWidget::createSplitPlanPrecentage.dart::WalletPrecentage" o-- "wallet_splitter::Model::wallet_model.dart::WalletModel"
"flutter::src::widgets::framework.dart::StatefulWidget" <|-- "wallet_splitter::Pages::SplitPlanWidget::createSplitPlanPrecentage.dart::WalletPrecentage"

class "wallet_splitter::Pages::SplitPlanWidget::createSplitPlanPrecentage.dart::_WalletPrecentageState" {
  +Widget build()
}

"flutter::src::widgets::framework.dart::State" <|-- "wallet_splitter::Pages::SplitPlanWidget::createSplitPlanPrecentage.dart::_WalletPrecentageState"

class "wallet_splitter::Pages::SplitPlanWidget::createSplitPlan.dart::CreateSplitPlan" {
  +_CreateSplitPlanState createState()
}

"flutter::src::widgets::framework.dart::StatefulWidget" <|-- "wallet_splitter::Pages::SplitPlanWidget::createSplitPlan.dart::CreateSplitPlan"

class "wallet_splitter::Pages::SplitPlanWidget::createSplitPlan.dart::_CreateSplitPlanState" {
  +List<WalletModel> wallets
  -List<bool> _isSelected
  +List<WalletModel> selectedWallet
  +void initState()
  +Widget build()
}

"flutter::src::widgets::framework.dart::State" <|-- "wallet_splitter::Pages::SplitPlanWidget::createSplitPlan.dart::_CreateSplitPlanState"

class "wallet_splitter::Pages::SplitPlanWidget::createSplitPlan.dart::WalletCheckbox" {
  +WalletModel wallet
  +bool value
  +Function onChanged
  +Widget build()
}

"wallet_splitter::Pages::SplitPlanWidget::createSplitPlan.dart::WalletCheckbox" o-- "wallet_splitter::Model::wallet_model.dart::WalletModel"
"flutter::src::widgets::framework.dart::StatelessWidget" <|-- "wallet_splitter::Pages::SplitPlanWidget::createSplitPlan.dart::WalletCheckbox"

class "wallet_splitter::Pages::onBoarding.dart::OnBoarding" {
  +_OnBoardingState createState()
}

"flutter::src::widgets::framework.dart::StatefulWidget" <|-- "wallet_splitter::Pages::onBoarding.dart::OnBoarding"

class "wallet_splitter::Pages::onBoarding.dart::_OnBoardingState" {
  +int currentIndex
  -PageController _controller
  +void initState()
  +void dispose()
  +Widget build()
  +Container buildDot()
}

"wallet_splitter::Pages::onBoarding.dart::_OnBoardingState" o-- "flutter::src::widgets::page_view.dart::PageController"
"flutter::src::widgets::framework.dart::State" <|-- "wallet_splitter::Pages::onBoarding.dart::_OnBoardingState"

class "wallet_splitter::Utility::googleSignIn.dart::GoogleSignInProvider" {
  +GoogleSignIn googleSignIn
  -GoogleSignInAccount? _user
  +GoogleSignInAccount user
  +Future<dynamic> googleLogin()
  +Future<dynamic> logout()
}

"wallet_splitter::Utility::googleSignIn.dart::GoogleSignInProvider" o-- "google_sign_in::google_sign_in.dart::GoogleSignIn"
"wallet_splitter::Utility::googleSignIn.dart::GoogleSignInProvider" o-- "google_sign_in::google_sign_in.dart::GoogleSignInAccount"
"flutter::src::foundation::change_notifier.dart::ChangeNotifier" <|-- "wallet_splitter::Utility::googleSignIn.dart::GoogleSignInProvider"


@enduml